Code_Appendix
…
Part 3: A propensity score model

#Fit propensity score model
shelterClean <- 
  glm(Jurisdiction ~ Intake.Type + Age + Sex + Animal.Type,
      data = shelterClean,
      family = binomial()) %>%
  
  augment(type.predict = "response",
          data = shelterClean)

shelterClean %>%
  select(Jurisdiction, .fitted)

## # A tibble: 26,404 × 2
##    Jurisdiction .fitted
##           <dbl>   <dbl>
##  1            1   0.845
##  2            1   0.882
##  3            1   0.861
##  4            1   0.865
##  5            1   0.885
##  6            1   0.879
##  7            1   0.836
##  8            1   0.849
##  9            0   0.849
## 10            1   0.884
## # … with 26,394 more rows
…
5.2. Refit the Propensity Score Model

#Fit propensity score model
shelterClean <- 
  glm(Jurisdiction ~ Intake.Type + Age + Sex + Animal.Type + Intake.Condition + OutcomeYear + was_outcome_alive + Intake.Subtype,
      data = shelterClean,
      family = binomial()) %>%
  
  augment(type.predict = "response",
          data = shelterClean)

shelterClean %>%
  select(Jurisdiction, .fitted)

## # A tibble: 26,404 × 2
##    Jurisdiction .fitted
##           <dbl>   <dbl>
##  1            1   0.799
##  2            1   0.882
##  3            1   0.866
##  4            1   0.857
##  5            1   0.885
##  6            1   0.890
##  7            1   0.859
##  8            1   0.844
##  9            0   0.844
## 10            1   0.898
## # … with 26,394 more rows
…
